{
    "info": {
        "_postman_id": "2c0cda0c-6588-44ef-8af1-cf07b9326155",
        "name": "Orders_Docs_Slalom",
        "description": "This is some additional content..... Hello This is new ..... ",
        "schema": "https://schema.getpostman.com/json/collection/v2.1.0/collection.json"
    },
    "item": [
        {
            "name": "Orders",
            "item": [
                {
                    "name": "Add Order",
                    "id": "9e668a1d-0283-4367-9398-6c6e5dbc9339",
                    "request": {
                        "auth": {
                            "type": "apikey",
                            "apikey": [
                                {
                                    "key": "key",
                                    "value": "x-api-key",
                                    "type": "string"
                                },
                                {
                                    "key": "value",
                                    "value": "<API Key>",
                                    "type": "string"
                                },
                                {
                                    "key": "in",
                                    "value": "header",
                                    "type": "string"
                                }
                            ]
                        },
                        "method": "POST",
                        "header": [
                            {
                                "key": "Content-Type",
                                "value": "application/json"
                            }
                        ],
                        "body": {
                            "mode": "raw",
                            "raw": "{\n    \"category\": \"Jeans\",\n    \"brand\": \"Union\",\n    \"color\": \"black\",\n    \"gender\": \"m\",\n    \"unitPrice\": 49.99,\n    \"unitSalePrice\": 29.99\n}"
                        },
                        "url": {
                            "raw": "{{baseUrl}}/orders",
                            "host": [
                                "{{baseUrl}}"
                            ],
                            "path": [
                                "orders"
                            ]
                        },
                        "description": "Creates a new order."
                    },
                    "response": [
                        {
                            "id": "12972c4b-a809-46d2-9440-661bccac322d",
                            "name": "Successful creation of order.",
                            "originalRequest": {
                                "method": "POST",
                                "header": [
                                    {
                                        "description": "Added as a part of security scheme: apikey",
                                        "key": "x-api-key",
                                        "value": "<API Key>"
                                    }
                                ],
                                "body": {
                                    "mode": "raw",
                                    "raw": "{\n    \"category\": \"Jeans\",\n    \"brand\": \"Union\",\n    \"color\": \"black\",\n    \"gender\": \"m\",\n    \"unitPrice\": 49.99,\n    \"unitSalePrice\": 29.99\n}"
                                },
                                "url": {
                                    "raw": "{{baseUrl}}/orders",
                                    "host": [
                                        "{{baseUrl}}"
                                    ],
                                    "path": [
                                        "orders"
                                    ]
                                }
                            },
                            "status": "Created",
                            "code": 201,
                            "_postman_previewlanguage": "json",
                            "header": [
                                {
                                    "key": "Content-Type",
                                    "value": "application/json"
                                }
                            ],
                            "cookie": [],
                            "responseTime": null,
                            "body": "{\n \"status\": \"success\"\n}"
                        }
                    ]
                },
                {
                    "name": "Get all orders by userId",
                    "event": [
                        {
                            "listen": "test",
                            "script": {
                                "id": "21bd8eb9-a566-41e2-8dd9-aee92708654a",
                                "exec": [
                                    "pm.test(\"Status code is 200\", function () {",
                                    "    pm.response.to.have.status(200);",
                                    "});",
                                    "pm.test(\"Status code is 200\", function () {",
                                    "    pm.response.to.have.status(200);",
                                    "});"
                                ],
                                "type": "text/javascript"
                            }
                        }
                    ],
                    "id": "5e97c55b-ae52-447e-9ca9-ec26235f2299",
                    "protocolProfileBehavior": {
                        "disableBodyPruning": true
                    },
                    "request": {
                        "auth": {
                            "type": "apikey",
                            "apikey": [
                                {
                                    "key": "key",
                                    "value": "x-api-key",
                                    "type": "string"
                                },
                                {
                                    "key": "value",
                                    "value": "<API Key>",
                                    "type": "string"
                                },
                                {
                                    "key": "in",
                                    "value": "header",
                                    "type": "string"
                                }
                            ]
                        },
                        "method": "GET",
                        "header": [],
                        "url": {
                            "raw": "{{baseUrl}}/orders?userId=MTU1MDg2MTI2MDQ0Mg==&startDate=&endDate=",
                            "host": [
                                "{{baseUrl}}"
                            ],
                            "path": [
                                "orders"
                            ],
                            "query": [
                                {
                                    "key": "userId",
                                    "value": "MTU1MDg2MTI2MDQ0Mg==",
                                    "description": "(Required) User ID whose order to search for"
                                },
                                {
                                    "key": "startDate",
                                    "value": "",
                                    "description": "(Required) A starting UNIX timestamp."
                                },
                                {
                                    "key": "endDate",
                                    "value": "",
                                    "description": "(Required) A starting UNIX timestamp."
                                }
                            ]
                        },
                        "description": "Pulls a list of all orders"
                    },
                    "response": [
                        {
                            "id": "48f561e3-5402-4e2c-a4f4-3f8e98e4cf29",
                            "name": "List of orders.",
                            "originalRequest": {
                                "method": "GET",
                                "header": [
                                    {
                                        "description": "Added as a part of security scheme: apikey",
                                        "key": "x-api-key",
                                        "value": "<API Key>"
                                    }
                                ],
                                "url": {
                                    "raw": "{{baseUrl}}/orders?userId=MTU1MDg2MTI2MDQ0Mg==&startDate=&endDate=",
                                    "host": [
                                        "{{baseUrl}}"
                                    ],
                                    "path": [
                                        "orders"
                                    ],
                                    "query": [
                                        {
                                            "key": "userId",
                                            "value": "MTU1MDg2MTI2MDQ0Mg=="
                                        },
                                        {
                                            "key": "startDate",
                                            "value": ""
                                        },
                                        {
                                            "key": "endDate",
                                            "value": ""
                                        }
                                    ]
                                }
                            },
                            "status": "OK",
                            "code": 200,
                            "_postman_previewlanguage": "json",
                            "header": [
                                {
                                    "key": "Content-Type",
                                    "value": "application/json"
                                }
                            ],
                            "cookie": [],
                            "responseTime": null,
                            "body": "{\n \"status\": \"success\"\n}"
                        }
                    ]
                },
                {
                    "name": "Get order",
                    "id": "adcce970-346b-47e2-833a-573a7d0833a5",
                    "request": {
                        "method": "GET",
                        "header": [],
                        "url": {
                            "raw": "{{baseUrl}}/orders/:orderId",
                            "host": [
                                "{{baseUrl}}"
                            ],
                            "path": [
                                "orders",
                                ":orderId"
                            ],
                            "variable": [
                                {
                                    "id": "4232b62a-fad4-402b-b85b-33abbe57496f",
                                    "key": "orderId",
                                    "value": "order-one",
                                    "description": "(Required) The order ID to retrieve."
                                }
                            ]
                        },
                        "description": "Retrieves a single order."
                    },
                    "response": [
                        {
                            "id": "b500222a-b419-48b5-b385-746484766b44",
                            "name": "Single order.",
                            "originalRequest": {
                                "method": "GET",
                                "header": [],
                                "url": {
                                    "raw": "{{baseUrl}}/orders/:orderId",
                                    "host": [
                                        "{{baseUrl}}"
                                    ],
                                    "path": [
                                        "orders",
                                        ":orderId"
                                    ],
                                    "variable": [
                                        {
                                            "key": "orderId"
                                        }
                                    ]
                                }
                            },
                            "status": "OK",
                            "code": 200,
                            "_postman_previewlanguage": "json",
                            "header": [
                                {
                                    "key": "Content-Type",
                                    "value": "application/json"
                                }
                            ],
                            "cookie": [],
                            "responseTime": null,
                            "body": "{\n \"status\": \"success\"\n}"
                        }
                    ]
                },
                {
                    "name": "Update order",
                    "id": "1a79678d-4019-4da5-afb7-fb5a79df7cb4",
                    "request": {
                        "auth": {
                            "type": "apikey",
                            "apikey": [
                                {
                                    "key": "key",
                                    "value": "x-api-key",
                                    "type": "string"
                                },
                                {
                                    "key": "value",
                                    "value": "<API Key>",
                                    "type": "string"
                                },
                                {
                                    "key": "in",
                                    "value": "header",
                                    "type": "string"
                                }
                            ]
                        },
                        "method": "PUT",
                        "header": [
                            {
                                "key": "Content-Type",
                                "value": "application/json"
                            }
                        ],
                        "body": {
                            "mode": "raw",
                            "raw": "{\n    \"unitSalePrice\": 29.99\n}"
                        },
                        "url": {
                            "raw": "{{baseUrl}}/orders/:orderId",
                            "host": [
                                "{{baseUrl}}"
                            ],
                            "path": [
                                "orders",
                                ":orderId"
                            ],
                            "variable": [
                                {
                                    "id": "269859ec-939d-460a-bd80-6ef343d07a3b",
                                    "key": "orderId",
                                    "value": "1550861260442-MTU1MDg2MTI2MDQ0Mg=-",
                                    "description": "(Required) The order ID to retrieve."
                                }
                            ]
                        },
                        "description": "Supports either full or partial updates."
                    },
                    "response": [
                        {
                            "id": "c9684f16-16f3-4823-8c88-e855d62faa11",
                            "name": "Successfully updated.",
                            "originalRequest": {
                                "method": "PUT",
                                "header": [
                                    {
                                        "description": "Added as a part of security scheme: apikey",
                                        "key": "x-api-key",
                                        "value": "<API Key>"
                                    }
                                ],
                                "body": {
                                    "mode": "raw",
                                    "raw": "{\n    \"unitSalePrice\": 29.99\n}"
                                },
                                "url": {
                                    "raw": "{{baseUrl}}/orders/:orderId",
                                    "host": [
                                        "{{baseUrl}}"
                                    ],
                                    "path": [
                                        "orders",
                                        ":orderId"
                                    ],
                                    "variable": [
                                        {
                                            "key": "orderId"
                                        }
                                    ]
                                }
                            },
                            "status": "No Content",
                            "code": 204,
                            "_postman_previewlanguage": "text",
                            "header": [
                                {
                                    "key": "Content-Type",
                                    "value": "text/plain"
                                }
                            ],
                            "cookie": [],
                            "responseTime": null,
                            "body": ""
                        },
                        {
                            "id": "301fd88d-1fe1-4c1c-8593-a36e1b47cd71",
                            "name": "Order not found",
                            "originalRequest": {
                                "method": "PUT",
                                "header": [
                                    {
                                        "description": "Added as a part of security scheme: apikey",
                                        "key": "x-api-key",
                                        "value": "<API Key>"
                                    }
                                ],
                                "body": {
                                    "mode": "raw",
                                    "raw": "{\n    \"unitSalePrice\": 29.99\n}"
                                },
                                "url": {
                                    "raw": "{{baseUrl}}/orders/:orderId",
                                    "host": [
                                        "{{baseUrl}}"
                                    ],
                                    "path": [
                                        "orders",
                                        ":orderId"
                                    ],
                                    "variable": [
                                        {
                                            "key": "orderId"
                                        }
                                    ]
                                }
                            },
                            "status": "Not Found",
                            "code": 404,
                            "_postman_previewlanguage": "text",
                            "header": [
                                {
                                    "key": "Content-Type",
                                    "value": "text/plain"
                                }
                            ],
                            "cookie": [],
                            "responseTime": null,
                            "body": ""
                        },
                        {
                            "id": "b9fdbe26-fe7f-47a2-95d6-921e317804ff",
                            "name": "Incorrect basket state",
                            "originalRequest": {
                                "method": "PUT",
                                "header": [
                                    {
                                        "description": "Added as a part of security scheme: apikey",
                                        "key": "x-api-key",
                                        "value": "<API Key>"
                                    }
                                ],
                                "body": {
                                    "mode": "raw",
                                    "raw": "{\n    \"unitSalePrice\": 29.99\n}"
                                },
                                "url": {
                                    "raw": "{{baseUrl}}/orders/:orderId",
                                    "host": [
                                        "{{baseUrl}}"
                                    ],
                                    "path": [
                                        "orders",
                                        ":orderId"
                                    ],
                                    "variable": [
                                        {
                                            "key": "orderId"
                                        }
                                    ]
                                }
                            },
                            "status": "Conflict",
                            "code": 409,
                            "_postman_previewlanguage": "json",
                            "header": [
                                {
                                    "key": "Content-Type",
                                    "value": "application/json"
                                }
                            ],
                            "cookie": [],
                            "responseTime": null,
                            "body": "{\n \"status\": \"failed\",\n \"order_id\": \"Basket no longer in open state\"\n}"
                        }
                    ]
                },
                {
                    "name": "Delete",
                    "id": "66690979-62fb-4a8a-a162-52da8b682989",
                    "request": {
                        "auth": {
                            "type": "apikey",
                            "apikey": [
                                {
                                    "key": "key",
                                    "value": "x-api-key",
                                    "type": "string"
                                },
                                {
                                    "key": "value",
                                    "value": "<API Key>",
                                    "type": "string"
                                },
                                {
                                    "key": "in",
                                    "value": "header",
                                    "type": "string"
                                }
                            ]
                        },
                        "method": "DELETE",
                        "header": [],
                        "url": {
                            "raw": "{{baseUrl}}/orders/:orderId",
                            "host": [
                                "{{baseUrl}}"
                            ],
                            "path": [
                                "orders",
                                ":orderId"
                            ],
                            "variable": [
                                {
                                    "id": "97b5924c-be6a-4be2-9dfc-252462ce186a",
                                    "key": "orderId",
                                    "value": "order-one",
                                    "description": "(Required) The order ID to retrieve."
                                }
                            ]
                        },
                        "description": "Delete an individual order."
                    },
                    "response": [
                        {
                            "id": "44698a20-8138-4f55-a7ea-8fa940efba78",
                            "name": "Order deleted.",
                            "originalRequest": {
                                "method": "DELETE",
                                "header": [
                                    {
                                        "description": "Added as a part of security scheme: apikey",
                                        "key": "x-api-key",
                                        "value": "<API Key>"
                                    }
                                ],
                                "url": {
                                    "raw": "{{baseUrl}}/orders/:orderId",
                                    "host": [
                                        "{{baseUrl}}"
                                    ],
                                    "path": [
                                        "orders",
                                        ":orderId"
                                    ],
                                    "variable": [
                                        {
                                            "key": "orderId"
                                        }
                                    ]
                                }
                            },
                            "status": "No Content",
                            "code": 204,
                            "_postman_previewlanguage": "text",
                            "header": [
                                {
                                    "key": "Content-Type",
                                    "value": "text/plain"
                                }
                            ],
                            "cookie": [],
                            "responseTime": null,
                            "body": ""
                        }
                    ]
                },
                {
                    "name": "Submit to purchase",
                    "id": "880ad4fd-133a-41f7-bd13-314e5f6ec6ef",
                    "request": {
                        "auth": {
                            "type": "apikey",
                            "apikey": [
                                {
                                    "key": "key",
                                    "value": "x-api-key",
                                    "type": "string"
                                },
                                {
                                    "key": "value",
                                    "value": "<API Key>",
                                    "type": "string"
                                },
                                {
                                    "key": "in",
                                    "value": "header",
                                    "type": "string"
                                }
                            ]
                        },
                        "method": "GET",
                        "header": [],
                        "url": {
                            "raw": "{{baseUrl}}/orders/submit_to_purchase?id=1550861260442-MTU1MDg2MTI2MDQ0Mg=-",
                            "host": [
                                "{{baseUrl}}"
                            ],
                            "path": [
                                "orders",
                                "submit_to_purchase"
                            ],
                            "query": [
                                {
                                    "key": "id",
                                    "value": "1550861260442-MTU1MDg2MTI2MDQ0Mg=-",
                                    "description": "(Required) Order ID"
                                }
                            ]
                        },
                        "description": "Submits an order to be purchased."
                    },
                    "response": [
                        {
                            "id": "d0318ddb-365e-469f-ada9-334c1d00ac9a",
                            "name": "Successful creation of Purchase.",
                            "originalRequest": {
                                "method": "GET",
                                "header": [
                                    {
                                        "description": "Added as a part of security scheme: apikey",
                                        "key": "x-api-key",
                                        "value": "<API Key>"
                                    }
                                ],
                                "url": {
                                    "raw": "{{baseUrl}}/orders/submit_to_purchase?id=1550861260442-MTU1MDg2MTI2MDQ0Mg=-",
                                    "host": [
                                        "{{baseUrl}}"
                                    ],
                                    "path": [
                                        "orders",
                                        "submit_to_purchase"
                                    ],
                                    "query": [
                                        {
                                            "key": "id",
                                            "value": "1550861260442-MTU1MDg2MTI2MDQ0Mg=-"
                                        }
                                    ]
                                }
                            },
                            "status": "OK",
                            "code": 200,
                            "_postman_previewlanguage": "text",
                            "header": [
                                {
                                    "key": "Content-Type",
                                    "value": "text/plain"
                                }
                            ],
                            "cookie": [],
                            "responseTime": null,
                            "body": ""
                        },
                        {
                            "id": "aebfc6c3-0851-4dc9-8153-34a71534b07d",
                            "name": "Order not found",
                            "originalRequest": {
                                "method": "GET",
                                "header": [
                                    {
                                        "description": "Added as a part of security scheme: apikey",
                                        "key": "x-api-key",
                                        "value": "<API Key>"
                                    }
                                ],
                                "url": {
                                    "raw": "{{baseUrl}}/orders/submit_to_purchase?id=1550861260442-MTU1MDg2MTI2MDQ0Mg=-",
                                    "host": [
                                        "{{baseUrl}}"
                                    ],
                                    "path": [
                                        "orders",
                                        "submit_to_purchase"
                                    ],
                                    "query": [
                                        {
                                            "key": "id",
                                            "value": "1550861260442-MTU1MDg2MTI2MDQ0Mg=-"
                                        }
                                    ]
                                }
                            },
                            "status": "Not Found",
                            "code": 404,
                            "_postman_previewlanguage": "text",
                            "header": [
                                {
                                    "key": "Content-Type",
                                    "value": "text/plain"
                                }
                            ],
                            "cookie": [],
                            "responseTime": null,
                            "body": ""
                        },
                        {
                            "id": "11f57ae3-644b-4b87-98a8-84473c0564d5",
                            "name": "Incorrect basket state",
                            "originalRequest": {
                                "method": "GET",
                                "header": [
                                    {
                                        "description": "Added as a part of security scheme: apikey",
                                        "key": "x-api-key",
                                        "value": "<API Key>"
                                    }
                                ],
                                "url": {
                                    "raw": "{{baseUrl}}/orders/submit_to_purchase?id=1550861260442-MTU1MDg2MTI2MDQ0Mg=-",
                                    "host": [
                                        "{{baseUrl}}"
                                    ],
                                    "path": [
                                        "orders",
                                        "submit_to_purchase"
                                    ],
                                    "query": [
                                        {
                                            "key": "id",
                                            "value": "1550861260442-MTU1MDg2MTI2MDQ0Mg=-"
                                        }
                                    ]
                                }
                            },
                            "status": "Conflict",
                            "code": 409,
                            "_postman_previewlanguage": "json",
                            "header": [
                                {
                                    "key": "Content-Type",
                                    "value": "application/json"
                                }
                            ],
                            "cookie": [],
                            "responseTime": null,
                            "body": "{\n \"status\": \"failed\",\n \"order_id\": \"Basket no longer in open state\"\n}"
                        }
                    ]
                }
            ],
            "id": "b87af4dd-58ac-4786-90b2-9a1cee0105db",
            "description": "A order object. Hello world"
        }
    ],
    "variable": [
        {
            "id": "b7252543-9d98-40e3-9989-6fb372e3540b",
            "key": "baseUrl",
            "value": "{{ordersUrl}}",
            "type": "string"
        }
    ]
}